^D:\USERS\TAMLI\SOURCE\REPOS\DISASMTEST\DISASMTEST\DEBUG\DECODE.OBJ|D:\USERS\TAMLI\SOURCE\REPOS\DISASMTEST\DISASMTEST\DEBUG\ITAB.OBJ|D:\USERS\TAMLI\SOURCE\REPOS\DISASMTEST\DISASMTEST\DEBUG\SOURCE.OBJ|D:\USERS\TAMLI\SOURCE\REPOS\DISASMTEST\DISASMTEST\DEBUG\SYN-ATT.OBJ|D:\USERS\TAMLI\SOURCE\REPOS\DISASMTEST\DISASMTEST\DEBUG\SYN-INTEL.OBJ|D:\USERS\TAMLI\SOURCE\REPOS\DISASMTEST\DISASMTEST\DEBUG\SYN.OBJ|D:\USERS\TAMLI\SOURCE\REPOS\DISASMTEST\DISASMTEST\DEBUG\UDIS86.OBJ
D:\USERS\TAMLI\SOURCE\REPOS\DISASMTEST\DEBUG\DISASMTEST.EXE
D:\USERS\TAMLI\SOURCE\REPOS\DISASMTEST\DEBUG\DISASMTEST.ILK
D:\USERS\TAMLI\SOURCE\REPOS\DISASMTEST\DEBUG\DISASMTEST.PDB
